
CONTROL FLOW GRAPH SSA

void main()
main: scope:[main]  from __start
  asm { inx lda#$12 lda$12 lda$12,x ldx$12,y lda($12,x) lda($12),y lda$1234 lda$1234,x lda$1234,y beq!+ jmp($1234) !:  }
  to:main::@return
main::@return: scope:[main]  from main
  return 
  to:@return

void __start()
__start: scope:[__start]  from
  call main 
  to:__start::@1
__start::@1: scope:[__start]  from __start
  to:__start::@return
__start::@return: scope:[__start]  from __start::@1
  return 
  to:@return

SYMBOL TABLE SSA
void __start()
void main()

Removing unused procedure __start
Removing unused procedure block __start
Removing unused procedure block __start::@1
Removing unused procedure block __start::@return
Successful SSA optimization PassNEliminateEmptyStart
CALL GRAPH

Created 0 initial phi equivalence classes
Coalesced down to 0 phi equivalence classes

FINAL CONTROL FLOW GRAPH

void main()
main: scope:[main]  from
  asm { inx lda#$12 lda$12 lda$12,x ldx$12,y lda($12,x) lda($12),y lda$1234 lda$1234,x lda$1234,y beq!+ jmp($1234) !:  }
  to:main::@return
main::@return: scope:[main]  from main
  [1] return 
  to:@return


VARIABLE REGISTER WEIGHTS
void main()

Initial phi equivalence classes
Complete equivalence classes
REGISTER UPLIFT POTENTIAL REGISTERS
Statement asm { inx lda#$12 lda$12 lda$12,x ldx$12,y lda($12,x) lda($12),y lda$1234 lda$1234,x lda$1234,y beq!+ jmp($1234) !:  } always clobbers reg byte a reg byte x 

REGISTER UPLIFT SCOPES
Uplift Scope [main] 
Uplift Scope [] 

Uplifting [main] best 56 combination 
Uplifting [] best 56 combination 

ASSEMBLER BEFORE OPTIMIZATION
  // File Comments
// Tests the different ASM addressing modes
  // Upstart
.cpu _6502NoIllegals
  // Commodore 64 PRG executable file
.file [name="cpu-6502-addressing-modes.prg", type="prg", segments="Program"]
.segmentdef Program [segments="Basic, Code, Data"]
.segmentdef Basic [start=$0801]
.segmentdef Code [start=$80d]
.segmentdef Data [startAfter="Code"]
.segment Basic
:BasicUpstart(main)
  // Global Constants & labels
.segment Code
  // main
main: {
    // asm { inx lda#$12 lda$12 lda$12,x ldx$12,y lda($12,x) lda($12),y lda$1234 lda$1234,x lda$1234,y beq!+ jmp($1234) !:  }
    inx
    lda #$12
    lda.z $12
    lda.z $12,x
    ldx.z $12,y
    lda ($12,x)
    lda ($12),y
    lda $1234
    lda $1234,x
    lda $1234,y
    beq !+
    jmp ($1234)
  !:
    jmp __breturn
    // main::@return
  __breturn:
    // [1] return 
    rts
}
  // File Data

ASSEMBLER OPTIMIZATIONS
Removing instruction jmp __breturn
Succesful ASM optimization Pass5NextJumpElimination
Removing instruction __breturn:
Succesful ASM optimization Pass5UnusedLabelElimination

FINAL SYMBOL TABLE
void main()



FINAL ASSEMBLER
Score: 53

  // File Comments
// Tests the different ASM addressing modes
  // Upstart
.cpu _6502NoIllegals
  // Commodore 64 PRG executable file
.file [name="cpu-6502-addressing-modes.prg", type="prg", segments="Program"]
.segmentdef Program [segments="Basic, Code, Data"]
.segmentdef Basic [start=$0801]
.segmentdef Code [start=$80d]
.segmentdef Data [startAfter="Code"]
.segment Basic
:BasicUpstart(main)
  // Global Constants & labels
.segment Code
  // main
main: {
    // asm
    // asm { inx lda#$12 lda$12 lda$12,x ldx$12,y lda($12,x) lda($12),y lda$1234 lda$1234,x lda$1234,y beq!+ jmp($1234) !:  }
    inx
    lda #$12
    lda.z $12
    lda.z $12,x
    ldx.z $12,y
    lda ($12,x)
    lda ($12),y
    lda $1234
    lda $1234,x
    lda $1234,y
    beq !+
    jmp ($1234)
  !:
    // main::@return
    // }
    // [1] return 
    rts
}
  // File Data

