
CONTROL FLOW GRAPH SSA

void main()
main: scope:[main]  from __start
  *BG_COLOR = RED
  to:main::@return
main::@return: scope:[main]  from main
  return 
  to:@return

void __start()
__start: scope:[__start]  from
  call main
  to:__start::@1
__start::@1: scope:[__start]  from __start
  to:__start::@return
__start::@return: scope:[__start]  from __start::@1
  return 
  to:@return

SYMBOL TABLE SSA
__constant char * const BG_COLOR = (char *)$d021
__constant const char RED = 2
void __start()
void main()

Simplifying constant pointer cast (char *) 53281
Successful SSA optimization PassNCastSimplification
Removing unused procedure __start
Removing unused procedure block __start
Removing unused procedure block __start::@1
Removing unused procedure block __start::@return
Successful SSA optimization PassNEliminateEmptyStart
CALL GRAPH

Created 0 initial phi equivalence classes
Coalesced down to 0 phi equivalence classes

FINAL CONTROL FLOW GRAPH

void main()
main: scope:[main]  from
  [0] *BG_COLOR = RED
  to:main::@return
main::@return: scope:[main]  from main
  [1] return 
  to:@return


VARIABLE REGISTER WEIGHTS
void main()

Initial phi equivalence classes
Complete equivalence classes
REGISTER UPLIFT POTENTIAL REGISTERS
Statement [0] *BG_COLOR = RED [ ] (  [ ] { }  ) always clobbers reg byte a 

REGISTER UPLIFT SCOPES
Uplift Scope [main] 
Uplift Scope [] 

Uplifting [main] best 15 combination 
Uplifting [] best 15 combination 

ASSEMBLER BEFORE OPTIMIZATION
  // File Comments
  // Upstart
  // Commodore 64 PRG executable file
.file [name="double-import.prg", type="prg", segments="Program"]
.segmentdef Program [segments="Basic, Code, Data"]
.segmentdef Basic [start=$0801]
.segmentdef Code [start=$80d]
.segmentdef Data [startAfter="Code"]
.segment Basic
:BasicUpstart(main)
  // Global Constants & labels
  .const RED = 2
  .label BG_COLOR = $d021
.segment Code
  // main
main: {
    // [0] *BG_COLOR = RED -- _deref_pbuc1=vbuc2 
    lda #RED
    sta BG_COLOR
    jmp __breturn
    // main::@return
  __breturn:
    // [1] return 
    rts
}
  // File Data

ASSEMBLER OPTIMIZATIONS
Removing instruction jmp __breturn
Succesful ASM optimization Pass5NextJumpElimination
Removing instruction __breturn:
Succesful ASM optimization Pass5UnusedLabelElimination

FINAL SYMBOL TABLE
__constant char * const BG_COLOR = (char *) 53281
__constant const char RED = 2
void main()



FINAL ASSEMBLER
Score: 12

  // File Comments
  // Upstart
  // Commodore 64 PRG executable file
.file [name="double-import.prg", type="prg", segments="Program"]
.segmentdef Program [segments="Basic, Code, Data"]
.segmentdef Basic [start=$0801]
.segmentdef Code [start=$80d]
.segmentdef Data [startAfter="Code"]
.segment Basic
:BasicUpstart(main)
  // Global Constants & labels
  .const RED = 2
  .label BG_COLOR = $d021
.segment Code
  // main
main: {
    // *BG_COLOR = RED
    // [0] *BG_COLOR = RED -- _deref_pbuc1=vbuc2 
    lda #RED
    sta BG_COLOR
    // main::@return
    // }
    // [1] return 
    rts
}
  // File Data

