
CONTROL FLOW GRAPH SSA

void main()
main: scope:[main]  from __start
  call empty
  to:main::@1
main::@1: scope:[main]  from main
  SCREEN[0] = 'x'
  to:main::@return
main::@return: scope:[main]  from main::@1
  return 
  to:@return

void empty()
empty: scope:[empty]  from main
  to:empty::@return
empty::@return: scope:[empty]  from empty
  return 
  to:@return

void __start()
__start: scope:[__start]  from
  call main
  to:__start::@1
__start::@1: scope:[__start]  from __start
  to:__start::@return
__start::@return: scope:[__start]  from __start::@1
  return 
  to:@return

SYMBOL TABLE SSA
__constant char * const SCREEN = (char *)$400
void __start()
void empty()
void main()

Adding number conversion cast (unumber) 0 in SCREEN[0] = 'x'
Successful SSA optimization PassNAddNumberTypeConversions
Simplifying constant pointer cast (char *) 1024
Simplifying constant integer cast 0
Successful SSA optimization PassNCastSimplification
Finalized unsigned number type (char) 0
Successful SSA optimization PassNFinalizeNumberTypeConversions
Simplifying expression containing zero SCREEN in [1] SCREEN[0] = 'x'
Successful SSA optimization PassNSimplifyExpressionWithZero
Removing call to empty/unused procedure [0] call empty
Removing unused procedure empty
Removing unused procedure block empty
Removing unused procedure block empty::@return
Successful SSA optimization PassNEliminateEmptyProcedure
Removing unused procedure __start
Removing unused procedure block __start
Removing unused procedure block __start::@1
Removing unused procedure block __start::@return
Successful SSA optimization PassNEliminateEmptyStart
Adding NOP phi() at start of main
CALL GRAPH

Created 0 initial phi equivalence classes
Coalesced down to 0 phi equivalence classes
Adding NOP phi() at start of main

FINAL CONTROL FLOW GRAPH

void main()
main: scope:[main]  from
  [0] phi()
  to:main::@1
main::@1: scope:[main]  from main
  [1] *SCREEN = 'x'
  to:main::@return
main::@return: scope:[main]  from main::@1
  [2] return 
  to:@return


VARIABLE REGISTER WEIGHTS
void main()

Initial phi equivalence classes
Complete equivalence classes
REGISTER UPLIFT POTENTIAL REGISTERS
Statement [1] *SCREEN = 'x' [ ] (  [ ] { }  ) always clobbers reg byte a 

REGISTER UPLIFT SCOPES
Uplift Scope [main] 
Uplift Scope [] 

Uplifting [main] best 45 combination 
Uplifting [] best 45 combination 

ASSEMBLER BEFORE OPTIMIZATION
  // File Comments
// Test removal of empty function
  // Upstart
  // Commodore 64 PRG executable file
.file [name="empty-function-1.prg", type="prg", segments="Program"]
.segmentdef Program [segments="Basic, Code, Data"]
.segmentdef Basic [start=$0801]
.segmentdef Code [start=$80d]
.segmentdef Data [startAfter="Code"]
.segment Basic
:BasicUpstart(main)
  // Global Constants & labels
  .label SCREEN = $400
.segment Code
  // main
main: {
    jmp __b1
    // main::@1
  __b1:
    // [1] *SCREEN = 'x' -- _deref_pbuc1=vbuc2 
    lda #'x'
    sta SCREEN
    jmp __breturn
    // main::@return
  __breturn:
    // [2] return 
    rts
}
  // File Data

ASSEMBLER OPTIMIZATIONS
Removing instruction jmp __b1
Removing instruction jmp __breturn
Succesful ASM optimization Pass5NextJumpElimination
Removing instruction __b1:
Removing instruction __breturn:
Succesful ASM optimization Pass5UnusedLabelElimination

FINAL SYMBOL TABLE
__constant char * const SCREEN = (char *) 1024
void main()



FINAL ASSEMBLER
Score: 12

  // File Comments
// Test removal of empty function
  // Upstart
  // Commodore 64 PRG executable file
.file [name="empty-function-1.prg", type="prg", segments="Program"]
.segmentdef Program [segments="Basic, Code, Data"]
.segmentdef Basic [start=$0801]
.segmentdef Code [start=$80d]
.segmentdef Data [startAfter="Code"]
.segment Basic
:BasicUpstart(main)
  // Global Constants & labels
  .label SCREEN = $400
.segment Code
  // main
main: {
    // main::@1
    // SCREEN[0] = 'x'
    // [1] *SCREEN = 'x' -- _deref_pbuc1=vbuc2 
    lda #'x'
    sta SCREEN
    // main::@return
    // }
    // [2] return 
    rts
}
  // File Data

