
CONTROL FLOW GRAPH SSA

void main()
main: scope:[main]  from __start
  *main::sb_screen = main::sb
  to:main::@return
main::@return: scope:[main]  from main
  return 
  to:@return

void __start()
__start: scope:[__start]  from
  call main
  to:__start::@1
__start::@1: scope:[__start]  from __start
  to:__start::@return
__start::@return: scope:[__start]  from __start::@1
  return 
  to:@return

SYMBOL TABLE SSA
void __start()
void main()
__constant signed char main::sb = (signed char)$ff
__constant signed char * const main::sb_screen = (signed char *)$400

Simplifying constant pointer cast (signed char *) 1024
Simplifying constant integer cast $ff
Successful SSA optimization PassNCastSimplification
Removing unused procedure __start
Removing unused procedure block __start
Removing unused procedure block __start::@1
Removing unused procedure block __start::@return
Successful SSA optimization PassNEliminateEmptyStart
CALL GRAPH

Created 0 initial phi equivalence classes
Coalesced down to 0 phi equivalence classes

FINAL CONTROL FLOW GRAPH

void main()
main: scope:[main]  from
  [0] *main::sb_screen = main::sb
  to:main::@return
main::@return: scope:[main]  from main
  [1] return 
  to:@return


VARIABLE REGISTER WEIGHTS
void main()

Initial phi equivalence classes
Complete equivalence classes
REGISTER UPLIFT POTENTIAL REGISTERS
Statement [0] *main::sb_screen = main::sb [ ] (  [ ] { }  ) always clobbers reg byte a 

REGISTER UPLIFT SCOPES
Uplift Scope [main] 
Uplift Scope [] 

Uplifting [main] best 15 combination 
Uplifting [] best 15 combination 

ASSEMBLER BEFORE OPTIMIZATION
  // File Comments
// Tests casting pointer types to other pointer types
  // Upstart
  // Commodore 64 PRG executable file
.file [name="pointer-cast-3.prg", type="prg", segments="Program"]
.segmentdef Program [segments="Basic, Code, Data"]
.segmentdef Basic [start=$0801]
.segmentdef Code [start=$80d]
.segmentdef Data [startAfter="Code"]
.segment Basic
:BasicUpstart(main)
  // Global Constants & labels
.segment Code
  // main
main: {
    .const sb = $ff
    .label sb_screen = $400
    // [0] *main::sb_screen = main::sb -- _deref_pbsc1=vbsc2 
    lda #sb
    sta sb_screen
    jmp __breturn
    // main::@return
  __breturn:
    // [1] return 
    rts
}
  // File Data

ASSEMBLER OPTIMIZATIONS
Removing instruction jmp __breturn
Succesful ASM optimization Pass5NextJumpElimination
Removing instruction __breturn:
Succesful ASM optimization Pass5UnusedLabelElimination

FINAL SYMBOL TABLE
void main()
__constant signed char main::sb = $ff
__constant signed char * const main::sb_screen = (signed char *) 1024



FINAL ASSEMBLER
Score: 12

  // File Comments
// Tests casting pointer types to other pointer types
  // Upstart
  // Commodore 64 PRG executable file
.file [name="pointer-cast-3.prg", type="prg", segments="Program"]
.segmentdef Program [segments="Basic, Code, Data"]
.segmentdef Basic [start=$0801]
.segmentdef Code [start=$80d]
.segmentdef Data [startAfter="Code"]
.segment Basic
:BasicUpstart(main)
  // Global Constants & labels
.segment Code
  // main
main: {
    .const sb = $ff
    .label sb_screen = $400
    // *sb_screen = sb
    // [0] *main::sb_screen = main::sb -- _deref_pbsc1=vbsc2 
    lda #sb
    sta sb_screen
    // main::@return
    // }
    // [1] return 
    rts
}
  // File Data

